Analysis of Shihong’s pest exclusion experiment
…
First need to calculate the diversity in each quadrat.

library(vegan)

## Loading required package: permute

## This is vegan 2.4-2

sp.diversity <- summarise(
  group_by(pestdat.ag, plot, quadrat, quad.unique, pesticide, exclosure, census), 
  shannon=diversity(total), simpson=diversity(total, index='invsimpson'))
sp.diversity

## Source: local data frame [461 x 8]
## Groups: plot, quadrat, quad.unique, pesticide, exclosure [?]
## 
##      plot quadrat quad.unique pesticide exclosure census shannon simpson
##    <fctr>   <int>      <fctr>    <fctr>    <fctr>  <chr>   <dbl>   <dbl>
## 1     1_0     101     1_0_101         W         0    16f    1.45    3.24
## 2     1_0     101     1_0_101         W         0    16s    1.33    3.60
## 3     1_0     102     1_0_102         C         0    16f    1.41    2.71
## 4     1_0     102     1_0_102         C         0    16s    1.56    4.50
## 5     1_0     103     1_0_103         I         0    16f    1.67    4.84
## 6     1_0     103     1_0_103         I         0    16s    1.49    4.00
## 7     1_0     104     1_0_104         C         0    16f    1.66    4.05
## 8     1_0     104     1_0_104         C         0    16s    1.37    3.86
## 9     1_0     105     1_0_105         F         0    16f    1.39    2.98
## 10    1_0     105     1_0_105         F         0    16s    1.49    4.00
## # ... with 451 more rows
…
